Capítulo 15 Dados geoespaciais no R | Análises Ecológicas no R
…
bbox (bordas): coordenadas mínimas e máximas da longitude e latitude

informação do CRS: epsg ou proj4string indicando o CRS (Coordinate Reference System)

tibble: tabela de atributos, com destaque para a coluna geom ou geometry que representa cada feição ou geometria

## Dados vetoriais de polígonos do mundo
data(world)
world
#> Simple feature collection with 177 features and 10 fields
#> Geometry type: MULTIPOLYGON
#> Dimension:     XY
#> Bounding box:  xmin: -180 ymin: -89.9 xmax: 180 ymax: 83.64513
#> Geodetic CRS:  WGS 84
#> # A tibble: 177 × 11
#>    iso_a2 name_long      continent region_un subregion type  area_km2     pop lifeExp gdpPercap                      geom
#>  * <chr>  <chr>          <chr>     <chr>     <chr>     <chr>    <dbl>   <dbl>   <dbl>     <dbl>        <MULTIPOLYGON [°]>
#>  1 FJ     Fiji           Oceania   Oceania   Melanesia Sove…   1.93e4  8.86e5    70.0     8222. (((-180 -16.55522, -179.…
#>  2 TZ     Tanzania       Africa    Africa    Eastern … Sove…   9.33e5  5.22e7    64.2     2402. (((33.90371 -0.95, 31.86…
#>  3 EH     Western Sahara Africa    Africa    Northern… Inde…   9.63e4 NA         NA         NA  (((-8.66559 27.65643, -8…
#>  4 CA     Canada         North Am… Americas  Northern… Sove…   1.00e7  3.55e7    82.0    43079. (((-132.71 54.04001, -13…
#>  5 US     United States  North Am… Americas  Northern… Coun…   9.51e6  3.19e8    78.8    51922. (((-171.7317 63.78252, -…
#>  6 KZ     Kazakhstan     Asia      Asia      Central … Sove…   2.73e6  1.73e7    71.6    23587. (((87.35997 49.21498, 86…
#>  7 UZ     Uzbekistan     Asia      Asia      Central … Sove…   4.61e5  3.08e7    71.0     5371. (((55.96819 41.30864, 57…
#>  8 PG     Papua New Gui… Oceania   Oceania   Melanesia Sove…   4.65e5  7.76e6    65.2     3709. (((141.0002 -2.600151, 1…
#>  9 ID     Indonesia      Asia      Asia      South-Ea… Sove…   1.82e6  2.55e8    68.9    10003. (((104.37 -1.084843, 104…
#> 10 AR     Argentina      South Am… Americas  South Am… Sove…   2.78e6  4.30e7    76.3    18798. (((-68.63401 -52.63637, …
#> # … with 167 more rows
…
## Unzip
unzip(zipfile = here::here("dados", "tabelas", "atlantic_amphibians.zip"),
      exdir = here::here("dados", "tabelas"))

Agora podemos importar a tabela de dados com a função readr::read_csv().

## Importar tabela de locais
geo_anfibios_locais <- readr::read_csv(
    here::here("dados", "tabelas", "ATLANTIC_AMPHIBIANS_sites.csv"),
    locale = readr::locale(encoding = "latin1")
)
geo_anfibios_locais
#> # A tibble: 1,163 × 25
#>    id      reference_number species_number record sampled_habitat active_methods passive_methods complementary_me… period
#>    <chr>              <dbl>          <dbl> <chr>  <chr>           <chr>          <chr>           <chr>             <chr> 
#>  1 amp1001             1001             19 ab     fo,ll           as             pt              <NA>              mo,da…
#>  2 amp1002             1002             16 co     fo,la,ll        as             pt              <NA>              mo,da…
#>  3 amp1003             1002             14 co     fo,la,ll        as             pt              <NA>              mo,da…
#>  4 amp1004             1002             13 co     fo,la,ll        as             pt              <NA>              mo,da…
#>  5 amp1005             1003             30 co     fo,ll,br        as             <NA>            <NA>              mo,da…
#>  6 amp1006             1004             42 co     tp,pp,la,ll,is  <NA>           <NA>            <NA>              <NA>  
#>  7 amp1007             1005             23 co     sp              as             <NA>            <NA>              <NA>  
#>  8 amp1008             1005             19 co     sp,la,sw        as,sb,tr       <NA>            <NA>              tw,ni 
#>  9 amp1009             1005             13 ab     fo              <NA>           pt              <NA>              mo,da…
#> 10 amp1010             1006              1 ab     fo              <NA>           pt              <NA>              mo,da…
#> # … with 1,153 more rows, and 16 more variables: month_start <dbl>, year_start <dbl>, month_finish <dbl>,
#> #   year_finish <dbl>, effort_months <dbl>, country <chr>, state <chr>, state_abbreviation <chr>, municipality <chr>,
#> #   site <chr>, latitude <dbl>, longitude <dbl>, coordinate_precision <chr>, altitude <dbl>, temperature <dbl>,
#> #   precipitation <dbl>
…
Por fim, podemos facilmente criar um objeto espacial do tipo MULTIPOINT utilizando a função sf::st_as_sf(). Podemos ver essas coordenadas plotadas no mapa simples da Figura 15.12.

É necessário antes se ater ao argumento coords que deve indicar as colunas de longitude e latitude, nessa ordem; e também ao argumento crs para indicar o CRS correspondente dessas coordenadas, que aqui sabemos se tratar de coordenadas geográficas e datum WGS84. Então podemos facilmente utilizar o código EPSG 4326. Entretanto, se as coordenadas estiverem em metros, por exemplo, teremos de nos ater a qual CRS as mesmas foram coletadas, ou seja, se forem coordenadas de GPS, é preciso saber como o GPS estava configurado (projeção e datum).

## Converter dados tabulares para sf
geo_anfibios_locais_vetor <- geo_anfibios_locais %>% 
    sf::st_as_sf(coords = c("longitude", "latitude"), crs = 4326)
geo_anfibios_locais_vetor
#> Simple feature collection with 1163 features and 23 fields
#> Geometry type: POINT
#> Dimension:     XY
#> Bounding box:  xmin: -56.74194 ymin: -33.51083 xmax: -34.79667 ymax: -3.51525
#> Geodetic CRS:  WGS 84
#> # A tibble: 1,163 × 24
#>    id      reference_number species_number record sampled_habitat active_methods passive_methods complementary_me… period
#>  * <chr>              <dbl>          <dbl> <chr>  <chr>           <chr>          <chr>           <chr>             <chr> 
#>  1 amp1001             1001             19 ab     fo,ll           as             pt              <NA>              mo,da…
#>  2 amp1002             1002             16 co     fo,la,ll        as             pt              <NA>              mo,da…
#>  3 amp1003             1002             14 co     fo,la,ll        as             pt              <NA>              mo,da…
#>  4 amp1004             1002             13 co     fo,la,ll        as             pt              <NA>              mo,da…
#>  5 amp1005             1003             30 co     fo,ll,br        as             <NA>            <NA>              mo,da…
#>  6 amp1006             1004             42 co     tp,pp,la,ll,is  <NA>           <NA>            <NA>              <NA>  
#>  7 amp1007             1005             23 co     sp              as             <NA>            <NA>              <NA>  
#>  8 amp1008             1005             19 co     sp,la,sw        as,sb,tr       <NA>            <NA>              tw,ni 
#>  9 amp1009             1005             13 ab     fo              <NA>           pt              <NA>              mo,da…
#> 10 amp1010             1006              1 ab     fo              <NA>           pt              <NA>              mo,da…
#> # … with 1,153 more rows, and 15 more variables: month_start <dbl>, year_start <dbl>, month_finish <dbl>,
#> #   year_finish <dbl>, effort_months <dbl>, country <chr>, state <chr>, state_abbreviation <chr>, municipality <chr>,
#> #   site <chr>, coordinate_precision <chr>, altitude <dbl>, temperature <dbl>, precipitation <dbl>, geometry <POINT [°]>
…
Da seção anterior, já temos o objeto com a tabela de coordenadas dos locais de amostragem das comunidades de anfíbios. Vamos agora criar um objeto vetorial das coordenadas e em seguida selecionar os locais dentro do limite do bioma da Mata Atlântica.

## Importar locais e converter em sf
geo_anfibios_locais_vetor <- geo_anfibios_locais %>% 
    dplyr::mutate(lon = longitude, lat = latitude) %>% 
    sf::st_as_sf(coords = c("lon", "lat"), crs = 4326)
geo_anfibios_locais_vetor
#> Simple feature collection with 1163 features and 4 fields
#> Geometry type: POINT
#> Dimension:     XY
#> Bounding box:  xmin: -56.74194 ymin: -33.51083 xmax: -34.79667 ymax: -3.51525
#> Geodetic CRS:  WGS 84
#> # A tibble: 1,163 × 5
#>    id      longitude latitude species_number              geometry
#>  * <chr>       <dbl>    <dbl>          <dbl>           <POINT [°]>
#>  1 amp1001     -43.4    -8.68             19     (-43.42194 -8.68)
#>  2 amp1002     -38.9    -3.55             16 (-38.85783 -3.545527)
#>  3 amp1003     -38.9    -3.57             14 (-38.88869 -3.574194)
#>  4 amp1004     -38.9    -3.52             13   (-38.9188 -3.51525)
#>  5 amp1005     -38.9    -4.28             30 (-38.91083 -4.280556)
#>  6 amp1006     -36.4    -9.23             42 (-36.42806 -9.229167)
#>  7 amp1007     -40.9    -3.85             23 (-40.89444 -3.846111)
#>  8 amp1008     -40.9    -3.83             19 (-40.91944 -3.825833)
#>  9 amp1009     -40.9    -3.84             13   (-40.91028 -3.8375)
#> 10 amp1010     -35.2    -6.14              1 (-35.22944 -6.136944)
#> # … with 1,153 more rows
…
Agora podemos combinar esses dados aos dados dos buffers.

## Combinação
geo_anfibios_locais_vetor_ma_buffer10km_ext_bind  <- dplyr::bind_cols(
    x = geo_anfibios_especies_locais_vetor_mata_atlantica_buffer10km,
    y = geo_anfibios_locais_vetor_ma_buffer10km_ext[, -1]) %>% 
    sf::st_drop_geometry()
geo_anfibios_locais_vetor_ma_buffer10km_ext_bind
#> # A tibble: 50 × 15
#>    id      species_number classe_30 classe_40 classe_14 classe_20 classe_130 classe_50 classe_60 classe_190 classe_210
#>  * <chr>            <dbl> <chr>     <chr>     <chr>     <chr>     <chr>      <chr>     <chr>     <chr>      <chr>     
#>  1 amp1716             10 7.7%      92.3%     0.0%      0.0%      0.0%       0.0%      0.0%      0.0%       0.0%      
#>  2 amp1351             16 21.6%     45.9%     24.3%     8.1%      0.0%       0.0%      0.0%      0.0%       0.0%      
#>  3 amp1168             19 56.3%     12.5%     9.4%      21.9%     0.0%       0.0%      0.0%      0.0%       0.0%      
#>  4 amp1085             20 38.9%     25.0%     27.8%     0.0%      8.3%       0.0%      0.0%      0.0%       0.0%      
#>  5 amp1258              3 0.0%      66.7%     0.0%      8.3%      16.7%      5.6%      2.8%      0.0%       0.0%      
#>  6 amp1160              9 31.4%     2.9%      0.0%      11.4%     37.1%      5.7%      0.0%      11.4%      0.0%      
#>  7 amp1843             14 0.0%      100.0%    0.0%      0.0%      0.0%       0.0%      0.0%      0.0%       0.0%      
#>  8 amp1060              8 0.0%      23.5%     0.0%      76.5%     0.0%       0.0%      0.0%      0.0%       0.0%      
#>  9 amp1141              5 18.8%     0.0%      62.5%     18.8%     0.0%       0.0%      0.0%      0.0%       0.0%      
#> 10 amp1333              7 37.8%     2.7%      0.0%      24.3%     21.6%      13.5%     0.0%      0.0%       0.0%      
#> # … with 40 more rows, and 4 more variables: classe_110 <chr>, classe_200 <chr>, classe_120 <chr>, Total <chr>
…
